{
  "header": {
    "description": "Karaoke Mugen Tag File",
    "version": 1
  },
  "tag": {
    "i18n": {
      "eng": "asads"
    },
    "name": "asads",
    "repository": "justin.omez.tech",
    "tid": "9ad70899-6d4e-43e8-9b07-01daf2effbcb",
    "types": [
      "6",
      "authors"
    ]
  }
}