{
  "header": {
    "description": "Karaoke Mugen Tag File",
    "version": 1
  },
  "tag": {
    "i18n": {
      "eng": "asdad"
    },
    "name": "asdad",
    "repository": "justin.omez.tech",
    "tid": "52361a71-9b52-487b-804b-195418638884",
    "types": [
      "1",
      "series"
    ]
  }
}