{
  "header": {
    "description": "Karaoke Mugen Tag File",
    "version": 1
  },
  "tag": {
    "i18n": {
      "eng": "dadas"
    },
    "name": "dadas",
    "repository": "justin.omez.tech",
    "tid": "7d1ac387-1d07-4977-ae01-28e7902c82d1",
    "types": [
      "6",
      "authors"
    ]
  }
}